[gd_scene load_steps=3 format=2]

[ext_resource path="res://assets/sprites/DungeonCrawl_ProjectUtumnoTileset.png" type="Texture" id=1]

[sub_resource type="CircleShape2D" id=1]
radius = 7.03413

[node name="Tree" type="StaticBody2D"]
z_index = 2
collision_mask = 52

[node name="Sprite" type="Sprite" parent="."]
texture = ExtResource( 1 )
region_enabled = true
region_rect = Rect2( 384, 576, 32, 32 )

[node name="CollisionShape2D" type="CollisionShape2D" parent="."]
position = Vector2( 0.220367, 12.8914 )
shape = SubResource( 1 )
