[gd_scene load_steps=3 format=2]

[ext_resource path="res://assets/sprites/DungeonCrawl_ProjectUtumnoTileset.png" type="Texture" id=1]

[sub_resource type="CircleShape2D" id=1]
radius = 15.521

[node name="KinematicBody2D" type="KinematicBody2D"]
collision_layer = 0
collision_mask = 0

[node name="Sprite" type="Sprite" parent="."]
texture = ExtResource( 1 )
region_enabled = true
region_rect = Rect2( 1472, 32, 32, 32 )

[node name="CollisionShape2D" type="CollisionShape2D" parent="."]
position = Vector2( 1.17734, -0.450352 )
rotation = 0.886627
shape = SubResource( 1 )
